id;name;birthday;address;email;phone;derpartment;grade;university
1;Sleek bluetooth;2021-05-01;bypass Incredible olive;HngNhn.Lm4@hotmail.com;0286 5902 8446;Computers azure adapter;Corporate Table;Cotton Practical eco-centric
2;Rustic violet Research;2021-04-30;Garden Pass;HngTm49@yahoo.com;027 6329 4663;Plaza generating;Sleek;hack AGP
3;Executive;2021-05-01;International Soft;HngDim.T@gmail.com;0209 4943 2149;Fish;Group Nevada intelligence;Bedfordshire Practical Distributed
4;Functionality matrix;2021-05-01;Supervisor Small;VHng_Dng@hotmail.com;0227 4368 0080;Soap hack;Steel Liechtenstein;quantifying
5;Missouri Ghana;2021-05-01;payment Soft Cambridgeshire;BnhHa68@yahoo.com;026 2278 4039;Fish;indexing green;Handmade upward-trending Baby
6;Fish Account;2021-05-01;hack;NamNht92@gmail.com;028 1140 6282;Plastic e-enable bypass;Rapid testing;Uganda Cuban
7;Applications firewall;2021-05-01;Dynamic;KiuHnh8@yahoo.com;028 2373 7241;Plastic parse Advanced;enhance;Buckinghamshire Gloves
8;driver Bacon Bacon;2021-04-30;Heights Avon Digitized;TrngPht75@hotmail.com;0237 5410 1685;Franc Moldovan;Mobility lavender backing;leverage CSS
9;networks;2021-05-01;Car Director;NhYn.Phm@yahoo.com;029 1083 2998;program architect panel;bi-directional haptic;copying
10;monitor;2021-05-01;copying;HuTi_H@yahoo.com;0282 6922 2598;Cheese transitional;action-items;white
