
  ${AnsiColor.GREEN}████████╗ ██╗   ██╗ ████████╗ ███╗    ██╗ ██╗   ██╗
  ${AnsiColor.GREEN}╚══██╔══╝ ██║   ██║ ╚══██╔══╝ ████╗   ██╗ ██║   ██║
  ${AnsiColor.GREEN}   ██║    ████████║    ██║    ██╔██╗  ██╗ ████████║
  ${AnsiColor.GREEN}   ██║    ██╔═══██║    ██║    ██║ ╚██╗██╗ ██╔═══██║
  ${AnsiColor.GREEN}   ██║    ██║   ██║ ████████╗ ██║  ╚████╗ ██║   ██║
  ${AnsiColor.GREEN}   ╚═╝    ╚═╝   ╚═╝ ╚═══════╝ ╚═╝   ╚═══╝ ╚═╝   ╚═╝

${AnsiColor.BRIGHT_BLUE}:: SMAS 🤓
:: Demo khóa luận tốt nghiệp ::${AnsiColor.DEFAULT}
